<svg width="134" height="142" viewBox="0 0 134 142" fill="none" xmlns="http://www.w3.org/2000/svg">
<path d="M133.943 34.3972C133.943 27.9739 128.718 22.7487 122.295 22.7487C118.997 22.7487 116.017 24.129 113.895 26.339L68.4378 0.0942279C67.5798 -0.400875 66.5235 -0.400875 65.6655 0.0942279L20.207 26.339C18.0857 24.129 15.1064 22.7487 11.8086 22.7487C5.38528 22.7487 0.160156 27.9739 0.160156 34.3972C0.160156 39.8639 3.94656 44.4607 9.03518 45.7087V98.1799C9.03518 99.1702 9.56387 100.086 10.4219 100.582L55.8652 126.819C55.5641 127.853 55.3994 128.945 55.3994 130.075C55.3994 136.497 60.6245 141.723 67.0479 141.723C73.4701 141.723 78.6953 136.497 78.6953 130.075C78.6953 128.946 78.5317 127.856 78.2305 126.822L123.681 100.582C124.539 100.087 125.068 99.1702 125.068 98.1799V45.7087C130.157 44.4607 133.943 39.8639 133.943 34.3972ZM5.70705 34.3972C5.70705 31.0322 8.44366 28.2956 11.8086 28.2956C15.1725 28.2956 17.9091 31.0322 17.9091 34.3972C17.9091 37.7611 15.1725 40.4988 11.8086 40.4988C8.44366 40.4988 5.70705 37.7611 5.70705 34.3972ZM67.0479 136.176C63.6829 136.176 60.9463 133.44 60.9463 130.075C60.9463 126.711 63.6829 123.973 67.0479 123.973C70.4118 123.973 73.1494 126.711 73.1494 130.075C73.1494 133.44 70.4118 136.176 67.0479 136.176ZM75.4527 122.022C73.3304 119.808 70.3489 118.426 67.0479 118.426C63.749 118.426 60.7675 119.807 58.6463 122.019L14.5821 96.5787V45.7087C19.6696 44.4607 23.456 39.8639 23.456 34.3972C23.456 33.2662 23.2913 32.173 22.9891 31.1373L67.0511 5.69854L111.114 31.1373C110.812 32.173 110.647 33.2651 110.647 34.3972C110.647 39.8639 114.434 44.4607 119.521 45.7087V96.5787L75.4527 122.022ZM122.295 40.4988C118.931 40.4988 116.193 37.7611 116.193 34.3972C116.193 31.0322 118.931 28.2956 122.295 28.2956C125.66 28.2956 128.396 31.0322 128.396 34.3972C128.396 37.7611 125.66 40.4988 122.295 40.4988Z" fill="#3949AB"/>
<path d="M105.047 42.7469L68.4375 21.6113C67.5795 21.1162 66.5232 21.1162 65.6651 21.6113L29.0557 42.7469C28.1976 43.2431 27.6689 44.1585 27.6689 45.1487V87.421C27.6689 88.4112 28.1976 89.3278 29.0557 89.8229L65.6651 110.96C66.0942 111.207 66.5719 111.331 67.0508 111.331C67.5307 111.331 68.0085 111.207 68.4375 110.96L105.047 89.8229C105.905 89.3278 106.434 88.4112 106.434 87.421V45.1487C106.434 44.1585 105.905 43.2431 105.047 42.7469ZM67.0508 27.2156L98.1134 45.1487L67.0508 63.0829L35.9893 45.1487L67.0508 27.2156ZM69.8242 103.754V91.2464C69.8242 89.7145 68.5827 88.473 67.0508 88.473C65.52 88.473 64.2784 89.7145 64.2784 91.2464V103.754L33.2158 85.8198V49.9524L65.6651 68.6872C66.0942 68.9343 66.5719 69.0588 67.0508 69.0588C67.5307 69.0588 68.0085 68.9343 68.4375 68.6872L100.887 49.9524V85.8198L69.8242 103.754Z" fill="#3949AB"/>
<path d="M67.0487 75.9924C66.3163 75.9924 65.6034 76.2882 65.0845 76.805C64.5688 77.3207 64.272 78.0357 64.272 78.7659C64.272 79.495 64.5688 80.21 65.0845 80.7257C65.6034 81.2425 66.3163 81.5393 67.0487 81.5393C67.7778 81.5393 68.4939 81.2425 69.0096 80.7257C69.5253 80.21 69.8221 79.495 69.8221 78.7659C69.8221 78.0357 69.5253 77.3207 69.0096 76.805C68.4939 76.2882 67.7778 75.9924 67.0487 75.9924Z" fill="#3949AB"/>
</svg>
